# This file may be used to create an environment using:
# $ conda create --name <env> --file <this file>
# platform: osx-64
colorama=0.3.7=py27_0
jbig=2.1=0
jpeg=9b=0
libgcc=4.8.5=1
libiconv=1.14=0
libpng=1.6.27=0
libtiff=4.0.6=3
libxml2=2.9.4=0
ncurses=5.9=10
openssl=1.0.2k=1
pcre=8.39=1
pip=9.0.1=py27_1
python=2.7.13=0
r=3.2.2=0
r-base=3.2.2=0
r-boot=1.3_17=r3.2.2_0a
r-class=7.3_14=r3.2.2_0a
r-cluster=2.0.3=r3.2.2_0a
r-codetools=0.2_14=r3.2.2_0a
r-corrplot=0.73=r3.2.2_0
r-foreign=0.8_66=r3.2.2_0a
r-kernsmooth=2.23_15=r3.2.2_0a
r-lattice=0.20_33=r3.2.2_0a
r-mass=7.3_45=r3.2.2_0a
r-matrix=1.2_2=r3.2.2_0a
r-mgcv=1.8_9=r3.2.2_0a
r-nlme=3.1_122=r3.2.2_0a
r-nnet=7.3_11=r3.2.2_0a
r-recommended=3.2.2=r3.2.2_0
r-rpart=4.1_10=r3.2.2_0a
r-spatial=7.3_11=r3.2.2_0a
r-survival=2.38_3=r3.2.2_0a
readline=6.2=2
setuptools=27.2.0=py27_0
sqlite=3.13.0=0
tk=8.5.18=0
wheel=0.29.0=py27_0
xz=5.2.2=1
zlib=1.2.8=3
