#package	version
fastq-mcf	v1.1.2.537
SolexaQA++	v3.1.5 (16S),v3.1.6 (RNAseq)
FLASh	v1.2.11
STAR	v2.5.2b
samtools	v1.3.1
htseq-count	v0.6.1p1
DESeq2	v1.10.1
CMSclassifier	v1.0.0
QIIME	v1.9
Kraken	v0.10.6
Krona	v2.7
edgeR	v3.14.0
