%!PS-Adobe-3.0 EPSF-3.0
%%DocumentNeededResources: font Helvetica
%%+ font Helvetica-Bold
%%+ font Helvetica-Oblique
%%+ font Helvetica-BoldOblique
%%+ font Symbol
%%Title: R Graphics Output
%%Creator: R Software
%%Pages: (atend)
%%BoundingBox: 0 0 1296 576
%%EndComments
%%BeginProlog
/bp  { gs sRGB gs } def
% begin .ps.prolog
/gs  { gsave } bind def
/gr  { grestore } bind def
/ep  { showpage gr gr } bind def
/m   { moveto } bind def
/l  { rlineto } bind def
/np  { newpath } bind def
/cp  { closepath } bind def
/f   { fill } bind def
/o   { stroke } bind def
/c   { newpath 0 360 arc } bind def
/r   { 4 2 roll moveto 1 copy 3 -1 roll exch 0 exch rlineto 0 rlineto -1 mul 0 exch rlineto closepath } bind def
/p1  { stroke } bind def
/p2  { gsave bg fill grestore newpath } bind def
/p3  { gsave bg fill grestore stroke } bind def
/p6  { gsave bg eofill grestore newpath } bind def
/p7  { gsave bg eofill grestore stroke } bind def
/t   { 5 -2 roll moveto gsave rotate
       1 index stringwidth pop
       mul neg 0 rmoveto show grestore } bind def
/ta  { 4 -2 roll moveto gsave rotate show } bind def
/tb  { 2 -1 roll 0 rmoveto show } bind def
/cl  { grestore gsave newpath 3 index 3 index moveto 1 index
       4 -1 roll lineto  exch 1 index lineto lineto
       closepath clip newpath } bind def
/rgb { setrgbcolor } bind def
/s   { scalefont setfont } bind def
% end   .ps.prolog
/sRGB { [ /CIEBasedABC
          << /DecodeLMN
               [ { dup 0.03928 le
                        {12.92321 div}
                        {0.055 add 1.055 div 2.4 exp }
                     ifelse
                 } bind dup dup
               ]
             /MatrixLMN [0.412457 0.212673 0.019334
                         0.357576 0.715152 0.119192
                         0.180437 0.072175 0.950301]
             /WhitePoint [0.9505 1.0 1.0890]
           >>
         ] setcolorspace } bind def
/srgb { setcolor } bind def
%%IncludeResource: font Helvetica
/Helvetica findfont
dup length dict begin
  {1 index /FID ne {def} {pop pop} ifelse} forall
  /Encoding ISOLatin1Encoding def
  currentdict
  end
/Font1 exch definefont pop
%%IncludeResource: font Helvetica-Bold
/Helvetica-Bold findfont
dup length dict begin
  {1 index /FID ne {def} {pop pop} ifelse} forall
  /Encoding ISOLatin1Encoding def
  currentdict
  end
/Font2 exch definefont pop
%%IncludeResource: font Helvetica-Oblique
/Helvetica-Oblique findfont
dup length dict begin
  {1 index /FID ne {def} {pop pop} ifelse} forall
  /Encoding ISOLatin1Encoding def
  currentdict
  end
/Font3 exch definefont pop
%%IncludeResource: font Helvetica-BoldOblique
/Helvetica-BoldOblique findfont
dup length dict begin
  {1 index /FID ne {def} {pop pop} ifelse} forall
  /Encoding ISOLatin1Encoding def
  currentdict
  end
/Font4 exch definefont pop
%%IncludeResource: font Symbol
/Symbol findfont
dup length dict begin
  {1 index /FID ne {def} {pop pop} ifelse} forall
  currentdict
  end
/Font5 exch definefont pop
%%EndProlog
%%Page: 1 1
bp
0.00 0.00 1296.00 576.00 cl
/bg { 0.2863 0.3569 0.3569 srgb } def
103.73 73.44 28.36 207.25 r p2
137.76 73.44 28.36 225.70 r p2
171.79 73.44 28.36 218.86 r p2
205.82 73.44 28.36 272.40 r p2
239.86 73.44 28.36 182.93 r p2
273.89 73.44 28.36 237.40 r p2
307.92 73.44 28.36 176.38 r p2
341.95 73.44 28.36 191.68 r p2
375.98 73.44 28.36 297.82 r p2
410.01 73.44 28.36 238.36 r p2
444.04 73.44 28.36 191.94 r p2
478.07 73.44 28.36 210.78 r p2
512.10 73.44 28.36 270.07 r p2
546.13 73.44 28.36 272.99 r p2
580.16 73.44 28.36 222.70 r p2
614.19 73.44 28.36 247.19 r p2
648.22 73.44 28.36 253.03 r p2
682.25 73.44 28.36 220.81 r p2
716.28 73.44 28.36 280.40 r p2
750.31 73.44 28.36 250.22 r p2
784.34 73.44 28.36 240.30 r p2
818.37 73.44 28.36 267.62 r p2
852.40 73.44 28.36 263.04 r p2
886.43 73.44 28.36 262.58 r p2
920.46 73.44 28.36 261.48 r p2
954.49 73.44 28.36 192.37 r p2
988.53 73.44 28.36 233.13 r p2
1022.56 73.44 28.36 238.74 r p2
1056.59 73.44 28.36 291.06 r p2
1090.62 73.44 28.36 287.48 r p2
1124.65 73.44 28.36 250.91 r p2
1158.68 73.44 28.36 293.88 r p2
1192.71 73.44 28.36 316.12 r p2
0.00 0.00 1296.00 576.00 cl
/Font1 findfont 17 s
0 0 0 srgb
117.91 47.52 (1) .5 0 t
151.94 47.52 (2) .5 0 t
185.97 47.52 (3) .5 0 t
220.00 47.52 (4) .5 0 t
254.03 47.52 (5) .5 0 t
288.06 47.52 (6) .5 0 t
322.10 47.52 (7) .5 0 t
356.13 47.52 (8) .5 0 t
390.16 47.52 (9) .5 0 t
424.19 47.52 (10) .5 0 t
458.22 47.52 (11) .5 0 t
492.25 47.52 (12) .5 0 t
526.28 47.52 (13) .5 0 t
560.31 47.52 (15) .5 0 t
594.34 47.52 (16) .5 0 t
628.37 47.52 (17) .5 0 t
662.40 47.52 (18) .5 0 t
696.43 47.52 (19) .5 0 t
730.46 47.52 (20) .5 0 t
764.49 47.52 (21) .5 0 t
798.52 47.52 (22) .5 0 t
832.55 47.52 (23) .5 0 t
866.58 47.52 (24) .5 0 t
900.61 47.52 (25) .5 0 t
934.64 47.52 (26) .5 0 t
968.67 47.52 (27) .5 0 t
1002.70 47.52 (28) .5 0 t
1036.74 47.52 (29) .5 0 t
1070.77 47.52 (30) .5 0 t
1104.80 47.52 (31) .5 0 t
1138.83 47.52 (32) .5 0 t
1172.86 47.52 (33) .5 0 t
1206.89 47.52 (34) .5 0 t
0.00 0.00 1296.00 576.00 cl
/bg { 0.2863 0.3569 0.3569 srgb } def
0 0 0 srgb
0.75 setlinewidth
[] 0 setdash
1 setlinecap
1 setlinejoin
10.00 setmiterlimit
74.16 501.84 12.10 -10.08 r p3
/Font1 findfont 17 s
101.38 490.70 (Kr) 0 ta
-0.170 (ak) tb
-0.340 (en vs 16S \(gen) tb
-0.170 (us-le) tb
-0.510 (v) tb
-0.425 (el\)) tb gr
662.40 18.72 (CRC samples) .5 0 t
12.96 295.20 (Correlation) .5 90 t
0.00 0.00 1296.00 576.00 cl
0 0 0 srgb
3.00 setlinewidth
[] 0 setdash
1 setlinecap
1 setlinejoin
10.00 setmiterlimit
np
59.04 73.44 m
0 443.52 l
o
np
59.04 73.44 m
-7.20 0 l
o
np
59.04 162.14 m
-7.20 0 l
o
np
59.04 250.85 m
-7.20 0 l
o
np
59.04 339.55 m
-7.20 0 l
o
np
59.04 428.26 m
-7.20 0 l
o
np
59.04 516.96 m
-7.20 0 l
o
/Font1 findfont 17 s
41.76 73.44 (0.0) .5 90 t
41.76 162.14 (0.2) .5 90 t
41.76 250.85 (0.4) .5 90 t
41.76 339.55 (0.6) .5 90 t
41.76 428.26 (0.8) .5 90 t
41.76 516.96 (1.0) .5 90 t
59.04 73.44 1265.76 516.96 cl
0 0 0 srgb
3.00 setlinewidth
[ 9.00 15.00] 0 setdash
1 setlinecap
1 setlinejoin
10.00 setmiterlimit
np
59.04 317.91 m
1206.72 0 l
o
ep
%%Trailer
%%Pages: 1
%%EOF
